<?xml version="1.0" encoding="UTF-8" standalone="no"?>
<!-- PYCSW_VERSION -->
<oai:OAI-PMH xmlns:oai="http://www.openarchives.org/OAI/2.0/" xmlns:xsi="http://www.w3.org/2001/XMLSchema-instance" xsi:schemaLocation="http://www.openarchives.org/OAI/2.0/ http://www.openarchives.org/OAI/2.0/OAI-PMH.xsd">
  <oai:responseDate>PYCSW_TIMESTAMP</oai:responseDate>
  <oai:request verb="ListIdentifiers" metadataPrefix="iso19139">http://localhost/pycsw/csw.py?config=tests/functionaltests/suites/oaipmh/default.cfg&amp;mode=oaipmh</oai:request>
  <oai:ListIdentifiers>
    <oai:header>
      <oai:identifier>urn:uuid:19887a8a-f6b0-4a63-ae56-7fba0e17801f</oai:identifier>
      <oai:datestamp/>
      <oai:setSpec/>
    </oai:header>
    <oai:header>
      <oai:identifier>urn:uuid:1ef30a8b-876d-4828-9246-c37ab4510bbd</oai:identifier>
      <oai:datestamp/>
      <oai:setSpec/>
    </oai:header>
    <oai:header>
      <oai:identifier>urn:uuid:66ae76b7-54ba-489b-a582-0f0633d96493</oai:identifier>
      <oai:datestamp/>
      <oai:setSpec/>
    </oai:header>
    <oai:header>
      <oai:identifier>urn:uuid:6a3de50b-fa66-4b58-a0e6-ca146fdd18d4</oai:identifier>
      <oai:datestamp/>
      <oai:setSpec/>
    </oai:header>
    <oai:header>
      <oai:identifier>urn:uuid:784e2afd-a9fd-44a6-9a92-a3848371c8ec</oai:identifier>
      <oai:datestamp/>
      <oai:setSpec/>
    </oai:header>
    <oai:header>
      <oai:identifier>urn:uuid:829babb0-b2f1-49e1-8cd5-7b489fe71a1e</oai:identifier>
      <oai:datestamp/>
      <oai:setSpec/>
    </oai:header>
    <oai:header>
      <oai:identifier>urn:uuid:88247b56-4cbc-4df9-9860-db3f8042e357</oai:identifier>
      <oai:datestamp/>
      <oai:setSpec/>
    </oai:header>
    <oai:header>
      <oai:identifier>urn:uuid:94bc9c83-97f6-4b40-9eb8-a8e8787a5c63</oai:identifier>
      <oai:datestamp/>
      <oai:setSpec/>
    </oai:header>
    <oai:header>
      <oai:identifier>urn:uuid:9a669547-b69b-469f-a11f-2d875366bbdc</oai:identifier>
      <oai:datestamp/>
      <oai:setSpec/>
    </oai:header>
    <oai:header>
      <oai:identifier>urn:uuid:a06af396-3105-442d-8b40-22b57a90d2f2</oai:identifier>
      <oai:datestamp/>
      <oai:setSpec/>
    </oai:header>
    <oai:resumptionToken completeListSize="12" cursor="0">11</oai:resumptionToken>
  </oai:ListIdentifiers>
</oai:OAI-PMH>
