<?xml version="1.0" encoding="UTF-8" standalone="no"?>
<!-- PYCSW_VERSION -->
<oai:OAI-PMH xmlns:oai="http://www.openarchives.org/OAI/2.0/" xmlns:xsi="http://www.w3.org/2001/XMLSchema-instance" xsi:schemaLocation="http://www.openarchives.org/OAI/2.0/ http://www.openarchives.org/OAI/2.0/OAI-PMH.xsd">
  <oai:responseDate>PYCSW_TIMESTAMP</oai:responseDate>
  <oai:request verb="ListRecords" metadataprefix="iso19139">http://localhost/pycsw/csw.py?config=tests/functionaltests/suites/oaipmh/default.cfg&amp;mode=oaipmh</oai:request>
  <oai:ListRecords>
    <oai:record>
      <oai:header>
        <oai:identifier>urn:uuid:19887a8a-f6b0-4a63-ae56-7fba0e17801f</oai:identifier>
        <oai:dateStamp/>
        <oai:setSpec/>
      </oai:header>
      <oai:metadata>
        <gmd:MD_Metadata xmlns:gmd="http://www.isotc211.org/2005/gmd" xmlns:gco="http://www.isotc211.org/2005/gco" xsi:schemaLocation="http://www.isotc211.org/2005/gmd http://schemas.opengis.net/csw/2.0.2/profiles/apiso/1.0.0/apiso.xsd">
          <gmd:fileIdentifier>
            <gco:CharacterString>urn:uuid:19887a8a-f6b0-4a63-ae56-7fba0e17801f</gco:CharacterString>
          </gmd:fileIdentifier>
          <gmd:language>
            <gco:CharacterString/>
          </gmd:language>
          <gmd:hierarchyLevel>
            <gmd:MD_ScopeCode codeSpace="ISOTC211/19115" codeList="http://www.isotc211.org/2005/resources/Codelist/gmxCodelists.xml#MD_ScopeCode" codeListValue="http://purl.org/dc/dcmitype/Image">http://purl.org/dc/dcmitype/Image</gmd:MD_ScopeCode>
          </gmd:hierarchyLevel>
          <gmd:contact/>
          <gmd:dateStamp>
            <gco:Date/>
          </gmd:dateStamp>
          <gmd:metadataStandardName>
            <gco:CharacterString>ISO19115</gco:CharacterString>
          </gmd:metadataStandardName>
          <gmd:metadataStandardVersion>
            <gco:CharacterString>2003/Cor.1:2006</gco:CharacterString>
          </gmd:metadataStandardVersion>
          <gmd:identificationInfo>
            <gmd:MD_DataIdentification id="urn:uuid:19887a8a-f6b0-4a63-ae56-7fba0e17801f">
              <gmd:citation>
                <gmd:CI_Citation>
                  <gmd:title>
                    <gco:CharacterString>Lorem ipsum</gco:CharacterString>
                  </gmd:title>
                </gmd:CI_Citation>
              </gmd:citation>
              <gmd:abstract>
                <gco:CharacterString>Quisque lacus diam, placerat mollis, pharetra in, commodo sed, augue. Duis iaculis arcu vel arcu.</gco:CharacterString>
              </gmd:abstract>
              <gmd:descriptiveKeywords>
                <gmd:MD_Keywords>
                  <gmd:keyword>
                    <gco:CharacterString>Tourism--Greece</gco:CharacterString>
                  </gmd:keyword>
                </gmd:MD_Keywords>
              </gmd:descriptiveKeywords>
              <gmd:language>
                <gco:CharacterString/>
              </gmd:language>
            </gmd:MD_DataIdentification>
          </gmd:identificationInfo>
        </gmd:MD_Metadata>
      </oai:metadata>
    </oai:record>
    <oai:record>
      <oai:header>
        <oai:identifier>urn:uuid:1ef30a8b-876d-4828-9246-c37ab4510bbd</oai:identifier>
        <oai:dateStamp/>
        <oai:setSpec/>
      </oai:header>
      <oai:metadata>
        <gmd:MD_Metadata xmlns:gmd="http://www.isotc211.org/2005/gmd" xmlns:gco="http://www.isotc211.org/2005/gco" xsi:schemaLocation="http://www.isotc211.org/2005/gmd http://schemas.opengis.net/csw/2.0.2/profiles/apiso/1.0.0/apiso.xsd">
          <gmd:fileIdentifier>
            <gco:CharacterString>urn:uuid:1ef30a8b-876d-4828-9246-c37ab4510bbd</gco:CharacterString>
          </gmd:fileIdentifier>
          <gmd:language>
            <gco:CharacterString/>
          </gmd:language>
          <gmd:hierarchyLevel>
            <gmd:MD_ScopeCode codeSpace="ISOTC211/19115" codeList="http://www.isotc211.org/2005/resources/Codelist/gmxCodelists.xml#MD_ScopeCode" codeListValue="http://purl.org/dc/dcmitype/Service">http://purl.org/dc/dcmitype/Service</gmd:MD_ScopeCode>
          </gmd:hierarchyLevel>
          <gmd:contact/>
          <gmd:dateStamp>
            <gco:Date/>
          </gmd:dateStamp>
          <gmd:metadataStandardName>
            <gco:CharacterString>ISO19115</gco:CharacterString>
          </gmd:metadataStandardName>
          <gmd:metadataStandardVersion>
            <gco:CharacterString>2003/Cor.1:2006</gco:CharacterString>
          </gmd:metadataStandardVersion>
          <gmd:identificationInfo>
            <gmd:MD_DataIdentification id="urn:uuid:1ef30a8b-876d-4828-9246-c37ab4510bbd">
              <gmd:citation>
                <gmd:CI_Citation>
                  <gmd:title>
                    <gco:CharacterString></gco:CharacterString>
                  </gmd:title>
                </gmd:CI_Citation>
              </gmd:citation>
              <gmd:abstract>
                <gco:CharacterString>Proin sit amet justo. In justo. Aenean adipiscing nulla id tellus.</gco:CharacterString>
              </gmd:abstract>
              <gmd:language>
                <gco:CharacterString/>
              </gmd:language>
              <gmd:extent>
                <gmd:EX_Extent>
                  <gmd:geographicElement>
                    <gmd:EX_GeographicBoundingBox>
                      <gmd:westBoundLongitude>
                        <gco:Decimal>13.75</gco:Decimal>
                      </gmd:westBoundLongitude>
                      <gmd:eastBoundLongitude>
                        <gco:Decimal>17.92</gco:Decimal>
                      </gmd:eastBoundLongitude>
                      <gmd:southBoundLatitude>
                        <gco:Decimal>60.04</gco:Decimal>
                      </gmd:southBoundLatitude>
                      <gmd:northBoundLatitude>
                        <gco:Decimal>68.41</gco:Decimal>
                      </gmd:northBoundLatitude>
                    </gmd:EX_GeographicBoundingBox>
                  </gmd:geographicElement>
                </gmd:EX_Extent>
              </gmd:extent>
            </gmd:MD_DataIdentification>
          </gmd:identificationInfo>
        </gmd:MD_Metadata>
      </oai:metadata>
    </oai:record>
    <oai:record>
      <oai:header>
        <oai:identifier>urn:uuid:66ae76b7-54ba-489b-a582-0f0633d96493</oai:identifier>
        <oai:dateStamp/>
        <oai:setSpec/>
      </oai:header>
      <oai:metadata>
        <gmd:MD_Metadata xmlns:gmd="http://www.isotc211.org/2005/gmd" xmlns:gco="http://www.isotc211.org/2005/gco" xsi:schemaLocation="http://www.isotc211.org/2005/gmd http://schemas.opengis.net/csw/2.0.2/profiles/apiso/1.0.0/apiso.xsd">
          <gmd:fileIdentifier>
            <gco:CharacterString>urn:uuid:66ae76b7-54ba-489b-a582-0f0633d96493</gco:CharacterString>
          </gmd:fileIdentifier>
          <gmd:language>
            <gco:CharacterString/>
          </gmd:language>
          <gmd:hierarchyLevel>
            <gmd:MD_ScopeCode codeSpace="ISOTC211/19115" codeList="http://www.isotc211.org/2005/resources/Codelist/gmxCodelists.xml#MD_ScopeCode" codeListValue="http://purl.org/dc/dcmitype/Text">http://purl.org/dc/dcmitype/Text</gmd:MD_ScopeCode>
          </gmd:hierarchyLevel>
          <gmd:contact/>
          <gmd:dateStamp>
            <gco:Date/>
          </gmd:dateStamp>
          <gmd:metadataStandardName>
            <gco:CharacterString>ISO19115</gco:CharacterString>
          </gmd:metadataStandardName>
          <gmd:metadataStandardVersion>
            <gco:CharacterString>2003/Cor.1:2006</gco:CharacterString>
          </gmd:metadataStandardVersion>
          <gmd:identificationInfo>
            <gmd:MD_DataIdentification id="urn:uuid:66ae76b7-54ba-489b-a582-0f0633d96493">
              <gmd:citation>
                <gmd:CI_Citation>
                  <gmd:title>
                    <gco:CharacterString>Maecenas enim</gco:CharacterString>
                  </gmd:title>
                </gmd:CI_Citation>
              </gmd:citation>
              <gmd:abstract>
                <gco:CharacterString>Pellentesque tempus magna non sapien fringilla blandit.</gco:CharacterString>
              </gmd:abstract>
              <gmd:descriptiveKeywords>
                <gmd:MD_Keywords>
                  <gmd:keyword>
                    <gco:CharacterString>Marine sediments</gco:CharacterString>
                  </gmd:keyword>
                </gmd:MD_Keywords>
              </gmd:descriptiveKeywords>
              <gmd:language>
                <gco:CharacterString/>
              </gmd:language>
            </gmd:MD_DataIdentification>
          </gmd:identificationInfo>
        </gmd:MD_Metadata>
      </oai:metadata>
    </oai:record>
    <oai:record>
      <oai:header>
        <oai:identifier>urn:uuid:6a3de50b-fa66-4b58-a0e6-ca146fdd18d4</oai:identifier>
        <oai:dateStamp/>
        <oai:setSpec/>
      </oai:header>
      <oai:metadata>
        <gmd:MD_Metadata xmlns:gmd="http://www.isotc211.org/2005/gmd" xmlns:gco="http://www.isotc211.org/2005/gco" xsi:schemaLocation="http://www.isotc211.org/2005/gmd http://schemas.opengis.net/csw/2.0.2/profiles/apiso/1.0.0/apiso.xsd">
          <gmd:fileIdentifier>
            <gco:CharacterString>urn:uuid:6a3de50b-fa66-4b58-a0e6-ca146fdd18d4</gco:CharacterString>
          </gmd:fileIdentifier>
          <gmd:language>
            <gco:CharacterString/>
          </gmd:language>
          <gmd:hierarchyLevel>
            <gmd:MD_ScopeCode codeSpace="ISOTC211/19115" codeList="http://www.isotc211.org/2005/resources/Codelist/gmxCodelists.xml#MD_ScopeCode" codeListValue="http://purl.org/dc/dcmitype/Service">http://purl.org/dc/dcmitype/Service</gmd:MD_ScopeCode>
          </gmd:hierarchyLevel>
          <gmd:contact/>
          <gmd:dateStamp>
            <gco:Date/>
          </gmd:dateStamp>
          <gmd:metadataStandardName>
            <gco:CharacterString>ISO19115</gco:CharacterString>
          </gmd:metadataStandardName>
          <gmd:metadataStandardVersion>
            <gco:CharacterString>2003/Cor.1:2006</gco:CharacterString>
          </gmd:metadataStandardVersion>
          <gmd:identificationInfo>
            <gmd:MD_DataIdentification id="urn:uuid:6a3de50b-fa66-4b58-a0e6-ca146fdd18d4">
              <gmd:citation>
                <gmd:CI_Citation>
                  <gmd:title>
                    <gco:CharacterString>Ut facilisis justo ut lacus</gco:CharacterString>
                  </gmd:title>
                </gmd:CI_Citation>
              </gmd:citation>
              <gmd:abstract>
                <gco:CharacterString></gco:CharacterString>
              </gmd:abstract>
              <gmd:descriptiveKeywords>
                <gmd:MD_Keywords>
                  <gmd:keyword>
                    <gco:CharacterString>Vegetation</gco:CharacterString>
                  </gmd:keyword>
                </gmd:MD_Keywords>
              </gmd:descriptiveKeywords>
              <gmd:language>
                <gco:CharacterString/>
              </gmd:language>
            </gmd:MD_DataIdentification>
          </gmd:identificationInfo>
        </gmd:MD_Metadata>
      </oai:metadata>
    </oai:record>
    <oai:record>
      <oai:header>
        <oai:identifier>urn:uuid:784e2afd-a9fd-44a6-9a92-a3848371c8ec</oai:identifier>
        <oai:dateStamp/>
        <oai:setSpec/>
      </oai:header>
      <oai:metadata>
        <gmd:MD_Metadata xmlns:gmd="http://www.isotc211.org/2005/gmd" xmlns:gco="http://www.isotc211.org/2005/gco" xsi:schemaLocation="http://www.isotc211.org/2005/gmd http://schemas.opengis.net/csw/2.0.2/profiles/apiso/1.0.0/apiso.xsd">
          <gmd:fileIdentifier>
            <gco:CharacterString>urn:uuid:784e2afd-a9fd-44a6-9a92-a3848371c8ec</gco:CharacterString>
          </gmd:fileIdentifier>
          <gmd:language>
            <gco:CharacterString/>
          </gmd:language>
          <gmd:hierarchyLevel>
            <gmd:MD_ScopeCode codeSpace="ISOTC211/19115" codeList="http://www.isotc211.org/2005/resources/Codelist/gmxCodelists.xml#MD_ScopeCode" codeListValue="http://purl.org/dc/dcmitype/Text">http://purl.org/dc/dcmitype/Text</gmd:MD_ScopeCode>
          </gmd:hierarchyLevel>
          <gmd:contact/>
          <gmd:dateStamp>
            <gco:Date/>
          </gmd:dateStamp>
          <gmd:metadataStandardName>
            <gco:CharacterString>ISO19115</gco:CharacterString>
          </gmd:metadataStandardName>
          <gmd:metadataStandardVersion>
            <gco:CharacterString>2003/Cor.1:2006</gco:CharacterString>
          </gmd:metadataStandardVersion>
          <gmd:identificationInfo>
            <gmd:MD_DataIdentification id="urn:uuid:784e2afd-a9fd-44a6-9a92-a3848371c8ec">
              <gmd:citation>
                <gmd:CI_Citation>
                  <gmd:title>
                    <gco:CharacterString>Aliquam fermentum purus quis arcu</gco:CharacterString>
                  </gmd:title>
                </gmd:CI_Citation>
              </gmd:citation>
              <gmd:abstract>
                <gco:CharacterString>Vestibulum quis ipsum sit amet metus imperdiet vehicula. Nulla scelerisque cursus mi.</gco:CharacterString>
              </gmd:abstract>
              <gmd:descriptiveKeywords>
                <gmd:MD_Keywords>
                  <gmd:keyword>
                    <gco:CharacterString>Hydrography--Dictionaries</gco:CharacterString>
                  </gmd:keyword>
                </gmd:MD_Keywords>
              </gmd:descriptiveKeywords>
              <gmd:language>
                <gco:CharacterString/>
              </gmd:language>
            </gmd:MD_DataIdentification>
          </gmd:identificationInfo>
        </gmd:MD_Metadata>
      </oai:metadata>
    </oai:record>
    <oai:record>
      <oai:header>
        <oai:identifier>urn:uuid:829babb0-b2f1-49e1-8cd5-7b489fe71a1e</oai:identifier>
        <oai:dateStamp/>
        <oai:setSpec/>
      </oai:header>
      <oai:metadata>
        <gmd:MD_Metadata xmlns:gmd="http://www.isotc211.org/2005/gmd" xmlns:gco="http://www.isotc211.org/2005/gco" xsi:schemaLocation="http://www.isotc211.org/2005/gmd http://schemas.opengis.net/csw/2.0.2/profiles/apiso/1.0.0/apiso.xsd">
          <gmd:fileIdentifier>
            <gco:CharacterString>urn:uuid:829babb0-b2f1-49e1-8cd5-7b489fe71a1e</gco:CharacterString>
          </gmd:fileIdentifier>
          <gmd:language>
            <gco:CharacterString/>
          </gmd:language>
          <gmd:hierarchyLevel>
            <gmd:MD_ScopeCode codeSpace="ISOTC211/19115" codeList="http://www.isotc211.org/2005/resources/Codelist/gmxCodelists.xml#MD_ScopeCode" codeListValue="http://purl.org/dc/dcmitype/Image">http://purl.org/dc/dcmitype/Image</gmd:MD_ScopeCode>
          </gmd:hierarchyLevel>
          <gmd:contact/>
          <gmd:dateStamp>
            <gco:Date/>
          </gmd:dateStamp>
          <gmd:metadataStandardName>
            <gco:CharacterString>ISO19115</gco:CharacterString>
          </gmd:metadataStandardName>
          <gmd:metadataStandardVersion>
            <gco:CharacterString>2003/Cor.1:2006</gco:CharacterString>
          </gmd:metadataStandardVersion>
          <gmd:identificationInfo>
            <gmd:MD_DataIdentification id="urn:uuid:829babb0-b2f1-49e1-8cd5-7b489fe71a1e">
              <gmd:citation>
                <gmd:CI_Citation>
                  <gmd:title>
                    <gco:CharacterString>Vestibulum massa purus</gco:CharacterString>
                  </gmd:title>
                </gmd:CI_Citation>
              </gmd:citation>
              <gmd:abstract>
                <gco:CharacterString></gco:CharacterString>
              </gmd:abstract>
              <gmd:language>
                <gco:CharacterString/>
              </gmd:language>
            </gmd:MD_DataIdentification>
          </gmd:identificationInfo>
        </gmd:MD_Metadata>
      </oai:metadata>
    </oai:record>
    <oai:record>
      <oai:header>
        <oai:identifier>urn:uuid:88247b56-4cbc-4df9-9860-db3f8042e357</oai:identifier>
        <oai:dateStamp/>
        <oai:setSpec/>
      </oai:header>
      <oai:metadata>
        <gmd:MD_Metadata xmlns:gmd="http://www.isotc211.org/2005/gmd" xmlns:gco="http://www.isotc211.org/2005/gco" xsi:schemaLocation="http://www.isotc211.org/2005/gmd http://schemas.opengis.net/csw/2.0.2/profiles/apiso/1.0.0/apiso.xsd">
          <gmd:fileIdentifier>
            <gco:CharacterString>urn:uuid:88247b56-4cbc-4df9-9860-db3f8042e357</gco:CharacterString>
          </gmd:fileIdentifier>
          <gmd:language>
            <gco:CharacterString/>
          </gmd:language>
          <gmd:hierarchyLevel>
            <gmd:MD_ScopeCode codeSpace="ISOTC211/19115" codeList="http://www.isotc211.org/2005/resources/Codelist/gmxCodelists.xml#MD_ScopeCode" codeListValue="dataset">dataset</gmd:MD_ScopeCode>
          </gmd:hierarchyLevel>
          <gmd:contact/>
          <gmd:dateStamp>
            <gco:Date/>
          </gmd:dateStamp>
          <gmd:metadataStandardName>
            <gco:CharacterString>ISO19115</gco:CharacterString>
          </gmd:metadataStandardName>
          <gmd:metadataStandardVersion>
            <gco:CharacterString>2003/Cor.1:2006</gco:CharacterString>
          </gmd:metadataStandardVersion>
          <gmd:identificationInfo>
            <gmd:MD_DataIdentification id="urn:uuid:88247b56-4cbc-4df9-9860-db3f8042e357">
              <gmd:citation>
                <gmd:CI_Citation>
                  <gmd:title>
                    <gco:CharacterString></gco:CharacterString>
                  </gmd:title>
                </gmd:CI_Citation>
              </gmd:citation>
              <gmd:abstract>
                <gco:CharacterString>Donec scelerisque pede ut nisl luctus accumsan. Quisque ultrices, lorem eget feugiat fringilla, lorem dui porttitor ante, cursus ultrices magna odio eu neque.</gco:CharacterString>
              </gmd:abstract>
              <gmd:descriptiveKeywords>
                <gmd:MD_Keywords>
                  <gmd:keyword>
                    <gco:CharacterString>Physiography-Landforms</gco:CharacterString>
                  </gmd:keyword>
                </gmd:MD_Keywords>
              </gmd:descriptiveKeywords>
              <gmd:language>
                <gco:CharacterString/>
              </gmd:language>
            </gmd:MD_DataIdentification>
          </gmd:identificationInfo>
        </gmd:MD_Metadata>
      </oai:metadata>
    </oai:record>
    <oai:record>
      <oai:header>
        <oai:identifier>urn:uuid:94bc9c83-97f6-4b40-9eb8-a8e8787a5c63</oai:identifier>
        <oai:dateStamp/>
        <oai:setSpec/>
      </oai:header>
      <oai:metadata>
        <gmd:MD_Metadata xmlns:gmd="http://www.isotc211.org/2005/gmd" xmlns:gco="http://www.isotc211.org/2005/gco" xsi:schemaLocation="http://www.isotc211.org/2005/gmd http://schemas.opengis.net/csw/2.0.2/profiles/apiso/1.0.0/apiso.xsd">
          <gmd:fileIdentifier>
            <gco:CharacterString>urn:uuid:94bc9c83-97f6-4b40-9eb8-a8e8787a5c63</gco:CharacterString>
          </gmd:fileIdentifier>
          <gmd:language>
            <gco:CharacterString/>
          </gmd:language>
          <gmd:hierarchyLevel>
            <gmd:MD_ScopeCode codeSpace="ISOTC211/19115" codeList="http://www.isotc211.org/2005/resources/Codelist/gmxCodelists.xml#MD_ScopeCode" codeListValue="dataset">dataset</gmd:MD_ScopeCode>
          </gmd:hierarchyLevel>
          <gmd:contact/>
          <gmd:dateStamp>
            <gco:Date/>
          </gmd:dateStamp>
          <gmd:metadataStandardName>
            <gco:CharacterString>ISO19115</gco:CharacterString>
          </gmd:metadataStandardName>
          <gmd:metadataStandardVersion>
            <gco:CharacterString>2003/Cor.1:2006</gco:CharacterString>
          </gmd:metadataStandardVersion>
          <gmd:identificationInfo>
            <gmd:MD_DataIdentification id="urn:uuid:94bc9c83-97f6-4b40-9eb8-a8e8787a5c63">
              <gmd:citation>
                <gmd:CI_Citation>
                  <gmd:title>
                    <gco:CharacterString>Mauris sed neque</gco:CharacterString>
                  </gmd:title>
                </gmd:CI_Citation>
              </gmd:citation>
              <gmd:abstract>
                <gco:CharacterString>Curabitur lacinia, ante non porta tempus, mi lorem feugiat odio, eget suscipit eros pede ac velit.</gco:CharacterString>
              </gmd:abstract>
              <gmd:descriptiveKeywords>
                <gmd:MD_Keywords>
                  <gmd:keyword>
                    <gco:CharacterString>Vegetation-Cropland</gco:CharacterString>
                  </gmd:keyword>
                </gmd:MD_Keywords>
              </gmd:descriptiveKeywords>
              <gmd:language>
                <gco:CharacterString/>
              </gmd:language>
              <gmd:extent>
                <gmd:EX_Extent>
                  <gmd:geographicElement>
                    <gmd:EX_GeographicBoundingBox>
                      <gmd:westBoundLongitude>
                        <gco:Decimal>-4.1</gco:Decimal>
                      </gmd:westBoundLongitude>
                      <gmd:eastBoundLongitude>
                        <gco:Decimal>0.89</gco:Decimal>
                      </gmd:eastBoundLongitude>
                      <gmd:southBoundLatitude>
                        <gco:Decimal>47.59</gco:Decimal>
                      </gmd:southBoundLatitude>
                      <gmd:northBoundLatitude>
                        <gco:Decimal>51.22</gco:Decimal>
                      </gmd:northBoundLatitude>
                    </gmd:EX_GeographicBoundingBox>
                  </gmd:geographicElement>
                </gmd:EX_Extent>
              </gmd:extent>
            </gmd:MD_DataIdentification>
          </gmd:identificationInfo>
        </gmd:MD_Metadata>
      </oai:metadata>
    </oai:record>
    <oai:record>
      <oai:header>
        <oai:identifier>urn:uuid:9a669547-b69b-469f-a11f-2d875366bbdc</oai:identifier>
        <oai:dateStamp/>
        <oai:setSpec/>
      </oai:header>
      <oai:metadata>
        <gmd:MD_Metadata xmlns:gmd="http://www.isotc211.org/2005/gmd" xmlns:gco="http://www.isotc211.org/2005/gco" xsi:schemaLocation="http://www.isotc211.org/2005/gmd http://schemas.opengis.net/csw/2.0.2/profiles/apiso/1.0.0/apiso.xsd">
          <gmd:fileIdentifier>
            <gco:CharacterString>urn:uuid:9a669547-b69b-469f-a11f-2d875366bbdc</gco:CharacterString>
          </gmd:fileIdentifier>
          <gmd:language>
            <gco:CharacterString/>
          </gmd:language>
          <gmd:hierarchyLevel>
            <gmd:MD_ScopeCode codeSpace="ISOTC211/19115" codeList="http://www.isotc211.org/2005/resources/Codelist/gmxCodelists.xml#MD_ScopeCode" codeListValue="dataset">dataset</gmd:MD_ScopeCode>
          </gmd:hierarchyLevel>
          <gmd:contact/>
          <gmd:dateStamp>
            <gco:Date/>
          </gmd:dateStamp>
          <gmd:metadataStandardName>
            <gco:CharacterString>ISO19115</gco:CharacterString>
          </gmd:metadataStandardName>
          <gmd:metadataStandardVersion>
            <gco:CharacterString>2003/Cor.1:2006</gco:CharacterString>
          </gmd:metadataStandardVersion>
          <gmd:identificationInfo>
            <gmd:MD_DataIdentification id="urn:uuid:9a669547-b69b-469f-a11f-2d875366bbdc">
              <gmd:citation>
                <gmd:CI_Citation>
                  <gmd:title>
                    <gco:CharacterString>Ñunç elementum</gco:CharacterString>
                  </gmd:title>
                </gmd:CI_Citation>
              </gmd:citation>
              <gmd:abstract>
                <gco:CharacterString></gco:CharacterString>
              </gmd:abstract>
              <gmd:descriptiveKeywords>
                <gmd:MD_Keywords>
                  <gmd:keyword>
                    <gco:CharacterString>Hydrography-Oceanographic</gco:CharacterString>
                  </gmd:keyword>
                </gmd:MD_Keywords>
              </gmd:descriptiveKeywords>
              <gmd:language>
                <gco:CharacterString/>
              </gmd:language>
              <gmd:extent>
                <gmd:EX_Extent>
                  <gmd:geographicElement>
                    <gmd:EX_GeographicBoundingBox>
                      <gmd:westBoundLongitude>
                        <gco:Decimal>-6.17</gco:Decimal>
                      </gmd:westBoundLongitude>
                      <gmd:eastBoundLongitude>
                        <gco:Decimal>-2.23</gco:Decimal>
                      </gmd:eastBoundLongitude>
                      <gmd:southBoundLatitude>
                        <gco:Decimal>44.79</gco:Decimal>
                      </gmd:southBoundLatitude>
                      <gmd:northBoundLatitude>
                        <gco:Decimal>51.13</gco:Decimal>
                      </gmd:northBoundLatitude>
                    </gmd:EX_GeographicBoundingBox>
                  </gmd:geographicElement>
                </gmd:EX_Extent>
              </gmd:extent>
            </gmd:MD_DataIdentification>
          </gmd:identificationInfo>
        </gmd:MD_Metadata>
      </oai:metadata>
    </oai:record>
    <oai:record>
      <oai:header>
        <oai:identifier>urn:uuid:a06af396-3105-442d-8b40-22b57a90d2f2</oai:identifier>
        <oai:dateStamp/>
        <oai:setSpec/>
      </oai:header>
      <oai:metadata>
        <gmd:MD_Metadata xmlns:gmd="http://www.isotc211.org/2005/gmd" xmlns:gco="http://www.isotc211.org/2005/gco" xsi:schemaLocation="http://www.isotc211.org/2005/gmd http://schemas.opengis.net/csw/2.0.2/profiles/apiso/1.0.0/apiso.xsd">
          <gmd:fileIdentifier>
            <gco:CharacterString>urn:uuid:a06af396-3105-442d-8b40-22b57a90d2f2</gco:CharacterString>
          </gmd:fileIdentifier>
          <gmd:language>
            <gco:CharacterString/>
          </gmd:language>
          <gmd:hierarchyLevel>
            <gmd:MD_ScopeCode codeSpace="ISOTC211/19115" codeList="http://www.isotc211.org/2005/resources/Codelist/gmxCodelists.xml#MD_ScopeCode" codeListValue="http://purl.org/dc/dcmitype/Image">http://purl.org/dc/dcmitype/Image</gmd:MD_ScopeCode>
          </gmd:hierarchyLevel>
          <gmd:contact/>
          <gmd:dateStamp>
            <gco:Date/>
          </gmd:dateStamp>
          <gmd:metadataStandardName>
            <gco:CharacterString>ISO19115</gco:CharacterString>
          </gmd:metadataStandardName>
          <gmd:metadataStandardVersion>
            <gco:CharacterString>2003/Cor.1:2006</gco:CharacterString>
          </gmd:metadataStandardVersion>
          <gmd:identificationInfo>
            <gmd:MD_DataIdentification id="urn:uuid:a06af396-3105-442d-8b40-22b57a90d2f2">
              <gmd:citation>
                <gmd:CI_Citation>
                  <gmd:title>
                    <gco:CharacterString>Lorem ipsum dolor sit amet</gco:CharacterString>
                  </gmd:title>
                </gmd:CI_Citation>
              </gmd:citation>
              <gmd:abstract>
                <gco:CharacterString></gco:CharacterString>
              </gmd:abstract>
              <gmd:language>
                <gco:CharacterString/>
              </gmd:language>
            </gmd:MD_DataIdentification>
          </gmd:identificationInfo>
        </gmd:MD_Metadata>
      </oai:metadata>
    </oai:record>
    <oai:resumptionToken completeListSize="12" cursor="0">11</oai:resumptionToken>
  </oai:ListRecords>
</oai:OAI-PMH>
